<svg width="22" height="20" viewBox="0 0 22 20" fill="none" xmlns="http://www.w3.org/2000/svg">
<path d="M21.1111 7.75047C21.1111 7.93531 21.0012 8.13695 20.7812 8.35539L16.1759 12.8166L17.267 19.1178C17.2754 19.1766 17.2796 19.2607 17.2796 19.3699C17.2796 19.79 17.1063 20 16.7595 20C16.5988 20 16.4296 19.9496 16.252 19.8488L10.5556 16.8746L4.85911 19.8488C4.67303 19.9496 4.50387 20 4.35163 20C4.17401 20 4.0408 19.9391 3.95199 19.8173C3.86318 19.6954 3.81878 19.5463 3.81878 19.3699C3.81878 19.3195 3.82723 19.2355 3.84415 19.1178L4.93523 12.8166L0.317174 8.35539C0.105725 8.12854 0 7.92691 0 7.75047C0 7.43961 0.236823 7.24638 0.71047 7.17076L7.07933 6.25079L9.9339 0.516698C10.0946 0.172233 10.3018 0 10.5556 0C10.8093 0 11.0165 0.172233 11.1772 0.516698L14.0318 6.25079L20.4006 7.17076C20.8743 7.24638 21.1111 7.43961 21.1111 7.75047Z" fill="url(#paint0_linear)"/>
<defs>
<linearGradient id="paint0_linear" x1="20.9091" y1="-5.31209e-07" x2="1.51478e-06" y2="20" gradientUnits="userSpaceOnUse">
<stop stop-color="#FFEC3C"/>
<stop offset="1" stop-color="#FFD600"/>
</linearGradient>
</defs>
</svg>
