<svg width="16" height="13" viewBox="0 0 16 13" fill="none" xmlns="http://www.w3.org/2000/svg">
<path d="M15.2 5.69483H2.7312L7.0224 1.37486C7.3348 1.06036 7.3348 0.550365 7.0226 0.235871C6.7102 -0.0786236 6.2034 -0.0786236 5.891 0.235871L0.2344 5.9306C0.1972 5.96805 0.164 6.00932 0.1348 6.05341C0.1214 6.07375 0.112 6.0957 0.1006 6.11684C0.0872 6.1418 0.0722 6.16556 0.0614 6.19194C0.0502 6.21912 0.0438001 6.24751 0.0356001 6.27569C0.0292001 6.29804 0.0206 6.31938 0.016 6.34234C0.00559998 6.39448 0 6.44724 0 6.50019L0.000200081 6.5018C0.000200081 6.55395 0.00560009 6.6063 0.0158001 6.65764C0.0206001 6.682 0.0295999 6.70435 0.0365999 6.72791C0.0443999 6.75468 0.0506 6.78187 0.0612 6.80784C0.0728 6.83582 0.0884 6.86119 0.1028 6.88757C0.1136 6.9073 0.122 6.92743 0.1346 6.94636C0.164 6.99086 0.1974 7.03233 0.2348 7.06998L5.8912 12.7641C6.2036 13.0786 6.7102 13.0786 7.0226 12.7643C7.335 12.4498 7.335 11.9396 7.0226 11.6251L2.7314 7.30555H15.2C15.6418 7.30555 16 6.94495 16 6.50019C16 6.05543 15.6418 5.69483 15.2 5.69483Z" fill="#144E00"/>
</svg>
