<svg width="16" height="16" viewBox="0 0 16 16" fill="none" xmlns="http://www.w3.org/2000/svg">
<path d="M0 1.23077L1.23077 6.19018e-06L16 14.7692L14.7692 16L0 1.23077Z" fill="#3F3F48"/>
<path d="M0 14.7692L1.23077 16L16 1.23077L14.7692 0L0 14.7692Z" fill="#3F3F48"/>
</svg>
