<svg width="24" height="29" viewBox="0 0 24 29" fill="none" xmlns="http://www.w3.org/2000/svg">
<path d="M20.0456 15.41C20.0085 11.7366 23.09 9.9747 23.2278 9.88569C21.4959 7.39408 18.7978 7.0522 17.8375 7.0133C15.5431 6.784 13.3583 8.3431 12.1943 8.3431C11.0327 8.3431 9.23435 7.04689 7.33173 7.0799C4.82886 7.11645 2.52187 8.51227 1.23389 10.7168C-1.36544 15.1536 0.568932 21.729 3.10176 25.3299C4.34002 27.09 5.81671 29.0706 7.75407 28.9981C9.62134 28.9256 10.3258 27.8097 12.5831 27.8097C14.8404 27.8097 15.4742 28.9981 17.4493 28.9609C19.4573 28.925 20.7303 27.1672 21.9584 25.4001C23.38 23.3552 23.9653 21.3753 24 21.2751C23.9563 21.255 20.0857 19.7961 20.0456 15.41Z" fill="white"/>
<path d="M16.3344 4.63014C17.3618 3.4029 18.0579 1.69762 17.8686 0C16.3859 0.0589451 14.5911 0.969648 13.5266 2.19571C12.5729 3.28383 11.739 5.01623 11.9625 6.6832C13.6165 6.80934 15.3034 5.85502 16.3344 4.63014Z" fill="white"/>
</svg>
